AirBnB
…
SDcalendar$listing_id <- as.factor(SDcalendar$listing_id)
SDcalendar$available<- as.factor(SDcalendar$available)

#mean price of each listing
SDlisting_price <- SDcalendar %>% group_by(listing_id) %>% summarise(average_price = mean(adjusted_price)) 
#saveRDS(SDlisting_price,"SDlisting_price")
#Average AirBnB price per night
mean(SDlisting_price$average_price)

## [1] 226.7695

#Average income from AirBnB per night when the place is booked
SDcalendar %>% filter(available == "f") %>% group_by(listing_id) %>% summarise(avg_income = mean(adjusted_price))

## # A tibble: 13,227 x 2
##    listing_id avg_income
##    <fct>           <dbl>
##  1 5570           2050  
##  2 8488            175. 
##  3 29967           225  
##  4 38245            73.5
##  5 39516            74  
##  6 52286           550  
##  7 54001            91.4
##  8 62274            71.5
##  9 62949            71.9
## 10 67441            92.6
## # ... with 13,217 more rows

#total income in 1 year 
SDcalendar %>% filter(available == "f") %>% group_by(listing_id) %>% summarise(total_income= sum(adjusted_price)) %>% arrange(desc(total_income))

## # A tibble: 13,227 x 2
##    listing_id total_income
##    <fct>             <dbl>
##  1 34753544        3649635
##  2 35351267        3250000
##  3 39971905        1844625
##  4 39028447        1843931
##  5 39466880        1843582
##  6 39107645        1842306
##  7 39466313        1841975
##  8 38847107        1841518
##  9 39607954        1841383
## 10 39132538        1841167
## # ... with 13,217 more rows
…
#Total $ earned from AirBnB each day in the year
SDcalendar %>% filter(available == "f") %>% group_by(date) %>% summarise(total = sum(adjusted_price)) %>% arrange(desc(total))

## Warning in format.POSIXlt(as.POSIXlt(x), ...): unknown timezone 'zone/tz/2019c.
## 1.0/zoneinfo/America/Los_Angeles'

## # A tibble: 365 x 2
##    date         total
##    <date>       <dbl>
##  1 2020-07-24 2365060
##  2 2020-07-25 2319673
##  3 2019-11-29 2228663
##  4 2020-07-23 2223137
##  5 2019-11-28 2221328
##  6 2019-12-27 2152715
##  7 2019-12-28 2147752
##  8 2020-07-22 2115296
##  9 2020-07-04 2091246
## 10 2019-11-27 2074537
## # ... with 355 more rows
